﻿## Interface: 50200
## X-Min-Interface: 50001
## Title:|cffffe00a<|r|cffff7d0aDBM|r|cffffe00a>|r |cff69ccf0Terrace of Endless Spring|r
## Title-zhTW:|cffffe00a<|r|cffff7d0aDBM|r|cffffe00a>|r |cff69ccf0豐泉台  (ToES)|r
## Title-zhCN:|cffffe00a<|r|cffff7d0aDBM|r|cffffe00a>|r |cff69ccf0永春台|r
## Author: MysticalOS
## LoadOnDemand: 1
## RequiredDeps: DBM-Core
## SavedVariablesPerCharacter: DBMTerraceofEndlessSpring_SavedVars, DBMTerraceofEndlessSpring_SavedStats, ShaAssistDB
## X-DBM-Mod: 1
## X-DBM-Mod-Type: RAID
## X-DBM-Mod-Category: MOP
## X-DBM-Mod-Has-LFR : 1
## X-DBM-Mod-Name: Terrace of Endless Spring
## X-DBM-Mod-Name-zhTW: 豐泉台  (ToES)
## X-DBM-Mod-Name-zhCN: 永春台
## X-DBM-Mod-Sort: 2
## X-DBM-Mod-MapID: 996
## X-DBM-Mod-LoadZoneID: 886
localization.en.lua
localization.cn.lua
localization.tw.lua
ProtectorsofEndless.lua
Tsulong.lua
LeiShi.lua
ShaofFear.lua
ShaOfFearAssist.lua