﻿## Interface: 50200
## X-Min-Interface: 50100
## Title:|cffffe00a<|r|cffff7d0aDBM|r|cffffe00a>|r |cff69ccf0Brawlers|r
## Title-zhCN:|cffffe00a<|r|cffff7d0aDBM|r|cffffe00a>|r |cff69ccf0搏击俱乐部|r
## Title-zhTW:|cffffe00a<|r|cffff7d0aDBM|r|cffffe00a>|r |cff69ccf0鬥陣俱樂部|r
## Author: MysticalOS
## LoadOnDemand: 1
## RequiredDeps: DBM-Core
## SavedVariablesPerCharacter: DBMBrawlers_SavedVars, DBMBrawlers_SavedStats
## X-DBM-Mod: 1
## X-DBM-Mod-Type: OTHER
## X-DBM-Mod-Category: MOP
## X-DBM-Mod-No-Statistics: 1
## X-DBM-Mod-Name: Brawlers
## X-DBM-Mod-Name-zhCN: 搏击俱乐部
## X-DBM-Mod-Name-zhTW: 鬥陣俱樂部
## X-DBM-Mod-Sort: 30
## X-DBM-Mod-LoadZoneID: 922,925
localization.en.lua
localization.cn.lua
localization.tw.lua
Brawlers.lua
Rank1.lua
Rank2.lua
Rank3.lua
Rank4.lua
Rank5.lua
Rank6.lua
Rank7.lua
Rank8.lua
Rank9.lua
Rares1.lua
Rares2.lua
